{
  "project_info": {
    "project_number": "979966860282",
    "project_id": "mccainnasummit",
    "storage_bucket": "mccainnasummit.appspot.com"
  },
  "client": [
    {
      "client_info": {
        "mobilesdk_app_id": "1:979966860282:android:e56b2d8c1766ca4a4ce243",
        "android_client_info": {
          "package_name": "com.createivegroupinc.mccainnasummit"
        }
      },
      "oauth_client": [
        {
          "client_id": "979966860282-gugakqnpsb7hmv3ttfus56a07bujmtsg.apps.googleusercontent.com",
          "client_type": 3
        }
      ],
      "api_key": [
        {
          "current_key": "AIzaSyBfoeRj9CmadFqR8JbDxvKk_5zwlzTvxrY"
        }
      ],
      "services": {
        "appinvite_service": {
          "other_platform_oauth_client": [
            {
              "client_id": "979966860282-gugakqnpsb7hmv3ttfus56a07bujmtsg.apps.googleusercontent.com",
              "client_type": 3
            },
            {
              "client_id": "979966860282-s1di1glfkr7tvvmbq3b8qmu7flmrbsu4.apps.googleusercontent.com",
              "client_type": 2,
              "ios_info": {
                "bundle_id": "com.createivegroupinc.mccainnasummit"
              }
            }
          ]
        }
      }
    }
  ],
  "configuration_version": "1"
}